
## Error: Problem posting validation request to https://cghub.ucsc.edu.

  % Total    % Received % Xferd  Average Speed   Time    Time     Time  Current
                                 Dload  Upload   Total   Spent    Left  Speed
  0     0    0     0    0     0      0      0 --:--:--  0:00:01 --:--:--     0  0     0    0     0    0     0      0      0 --:--:--  0:00:02 --:--:--     0  0     0    0     0    0     0      0      0 --:--:--  0:00:03 --:--:--     0  0     0    0     0    0     0      0      0 --:--:--  0:00:04 --:--:--     0  0     0    0     0    0     0      0      0 --:--:--  0:00:05 --:--:--     0  0     0    0     0    0     0      0      0 --:--:--  0:00:06 --:--:--     0  0     0    0     0    0     0      0      0 --:--:--  0:00:07 --:--:--     0  0     0    0     0    0     0      0      0 --:--:--  0:00:08 --:--:--     0  0     0    0     0    0     0      0      0 --:--:--  0:00:09 --:--:--     0  0     0    0     0    0     0      0      0 --:--:--  0:00:10 --:--:--     0  0     0    0     0    0     0      0      0 --:--:--  0:00:11 --:--:--     0  0     0    0     0    0     0      0      0 --:--:--  0:00:12 --:--:--     0  0     0    0     0    0     0      0      0 --:--:--  0:00:13 --:--:--     0  0     0    0     0    0     0      0      0 --:--:--  0:00:14 --:--:--     0  0     0    0     0    0     0      0      0 --:--:--  0:00:15 --:--:--     0  0     0    0     0    0     0      0      0 --:--:--  0:00:16 --:--:--     0  0     0    0     0    0     0      0      0 --:--:--  0:00:17 --:--:--     0  0     0    0     0    0     0      0      0 --:--:--  0:00:18 --:--:--     0  0     0    0     0    0     0      0      0 --:--:--  0:00:19 --:--:--     0  0     0    0     0    0     0      0      0 --:--:--  0:00:20 --:--:--     0  0     0    0     0    0     0      0      0 --:--:--  0:00:21 --:--:--     0  0     0    0     0    0     0      0      0 --:--:--  0:00:22 --:--:--     0  0     0    0     0    0     0      0      0 --:--:--  0:00:23 --:--:--     0  0     0    0     0    0     0      0      0 --:--:--  0:00:24 --:--:--     0  0     0    0     0    0     0      0      0 --:--:--  0:00:25 --:--:--     0  0     0    0     0    0     0      0      0 --:--:--  0:00:26 --:--:--     0  0     0    0     0    0     0      0      0 --:--:--  0:00:27 --:--:--     0  0     0    0     0    0     0      0      0 --:--:--  0:00:28 --:--:--     0  0     0    0     0    0     0      0      0 --:--:--  0:00:29 --:--:--     0  0     0    0     0    0     0      0      0 --:--:--  0:00:30 --:--:--     0  0     0    0     0    0     0      0      0 --:--:--  0:00:31 --:--:--     0  0     0    0     0    0     0      0      0 --:--:--  0:00:32 --:--:--     0  0     0    0     0    0     0      0      0 --:--:--  0:00:33 --:--:--     0  0     0    0     0    0     0      0      0 --:--:--  0:00:34 --:--:--     0  0     0    0     0    0     0      0      0 --:--:--  0:00:35 --:--:--     0  0     0    0     0    0     0      0      0 --:--:--  0:00:36 --:--:--     0  0     0    0     0    0     0      0      0 --:--:--  0:00:37 --:--:--     0  0     0    0     0    0     0      0      0 --:--:--  0:00:38 --:--:--     0  0     0    0     0    0     0      0      0 --:--:--  0:00:39 --:--:--     0  0     0    0     0    0     0      0      0 --:--:--  0:00:40 --:--:--     0  0     0    0     0    0     0      0      0 --:--:--  0:00:41 --:--:--     0  0     0    0     0    0     0      0      0 --:--:--  0:00:42 --:--:--     0  0     0    0     0    0     0      0      0 --:--:--  0:00:43 --:--:--     0  0     0    0     0    0     0      0      0 --:--:--  0:00:44 --:--:--     0  0     0    0     0    0     0      0      0 --:--:--  0:00:45 --:--:--     0  0     0    0     0    0     0      0      0 --:--:--  0:00:46 --:--:--     0  0     0    0     0    0     0      0      0 --:--:--  0:00:47 --:--:--     0  0     0    0     0    0     0      0      0 --:--:--  0:00:48 --:--:--     0  0     0    0     0    0     0      0      0 --:--:--  0:00:49 --:--:--     0  0     0    0     0    0     0      0      0 --:--:--  0:00:50 --:--:--     0  0     0    0     0    0     0      0      0 --:--:--  0:00:51 --:--:--     0  0     0    0     0    0     0      0      0 --:--:--  0:00:52 --:--:--     0  0     0    0     0    0     0      0      0 --:--:--  0:00:53 --:--:--     0  0     0    0     0    0     0      0      0 --:--:--  0:00:54 --:--:--     0  0     0    0     0    0     0      0      0 --:--:--  0:00:55 --:--:--     0  0     0    0     0    0     0      0      0 --:--:--  0:00:56 --:--:--     0  0     0    0     0    0     0      0      0 --:--:--  0:00:57 --:--:--     0  0     0    0     0    0     0      0      0 --:--:--  0:00:58 --:--:--     0  0     0    0     0    0     0      0      0 --:--:--  0:00:59 --:--:--     0  0     0    0     0    0     0      0      0 --:--:--  0:01:00 --:--:--     0  0     0    0     0    0     0      0      0 --:--:--  0:01:01 --:--:--     0  0     0    0     0    0     0      0      0 --:--:--  0:01:02 --:--:--     0  0     0    0     0    0     0      0      0 --:--:--  0:01:03 --:--:--     0  0     0    0     0    0     0      0      0 --:--:--  0:01:04 --:--:--     0  0     0    0     0    0     0      0      0 --:--:--  0:01:05 --:--:--     0  0     0    0     0    0     0      0      0 --:--:--  0:01:06 --:--:--     0  0     0    0     0    0     0      0      0 --:--:--  0:01:07 --:--:--     0  0     0    0     0    0     0      0      0 --:--:--  0:01:08 --:--:--     0  0     0    0     0    0     0      0      0 --:--:--  0:01:09 --:--:--     0  0     0    0     0    0     0      0      0 --:--:--  0:01:10 --:--:--     0  0     0    0     0    0     0      0      0 --:--:--  0:01:11 --:--:--     0  0     0    0     0    0     0      0      0 --:--:--  0:01:12 --:--:--     0  0     0    0     0    0     0      0      0 --:--:--  0:01:13 --:--:--     0  0     0    0     0    0     0      0      0 --:--:--  0:01:14 --:--:--     0  0     0    0     0    0     0      0      0 --:--:--  0:01:15 --:--:--     0  0     0    0     0    0     0      0      0 --:--:--  0:01:16 --:--:--     0  0     0    0     0    0     0      0      0 --:--:--  0:01:17 --:--:--     0  0     0    0     0    0     0      0      0 --:--:--  0:01:18 --:--:--     0  0     0    0     0    0     0      0      0 --:--:--  0:01:19 --:--:--     0  0     0    0     0    0     0      0      0 --:--:--  0:01:20 --:--:--     0  0     0    0     0    0     0      0      0 --:--:--  0:01:21 --:--:--     0  0     0    0     0    0     0      0      0 --:--:--  0:01:22 --:--:--     0  0     0    0     0    0     0      0      0 --:--:--  0:01:23 --:--:--     0  0     0    0     0    0     0      0      0 --:--:--  0:01:24 --:--:--     0  0     0    0     0    0     0      0      0 --:--:--  0:01:25 --:--:--     0  0     0    0     0    0     0      0      0 --:--:--  0:01:26 --:--:--     0  0     0    0     0    0     0      0      0 --:--:--  0:01:27 --:--:--     0  0     0    0     0    0     0      0      0 --:--:--  0:01:28 --:--:--     0  0     0    0     0    0     0      0      0 --:--:--  0:01:29 --:--:--     0  0     0    0     0    0     0      0      0 --:--:--  0:01:30 --:--:--     0  0     0    0     0    0     0      0      0 --:--:--  0:01:31 --:--:--     0  0     0    0     0    0     0      0      0 --:--:--  0:01:32 --:--:--     0  0     0    0     0    0     0      0      0 --:--:--  0:01:33 --:--:--     0  0     0    0     0    0     0      0      0 --:--:--  0:01:34 --:--:--     0  0     0    0     0    0     0      0      0 --:--:--  0:01:35 --:--:--     0  0     0    0     0    0     0      0      0 --:--:--  0:01:36 --:--:--     0  0     0    0     0    0     0      0      0 --:--:--  0:01:37 --:--:--     0  0     0    0     0    0     0      0      0 --:--:--  0:01:38 --:--:--     0  0     0    0     0    0     0      0      0 --:--:--  0:01:39 --:--:--     0  0     0    0     0    0     0      0      0 --:--:--  0:01:40 --:--:--     0  0     0    0     0    0     0      0      0 --:--:--  0:01:41 --:--:--     0  0     0    0     0    0     0      0      0 --:--:--  0:01:42 --:--:--     0  0     0    0     0    0     0      0      0 --:--:--  0:01:43 --:--:--     0  0     0    0     0    0     0      0      0 --:--:--  0:01:44 --:--:--     0  0     0    0     0    0     0      0      0 --:--:--  0:01:45 --:--:--     0  0     0    0     0    0     0      0      0 --:--:--  0:01:46 --:--:--     0  0     0    0     0    0     0      0      0 --:--:--  0:01:47 --:--:--     0  0     0    0     0    0     0      0      0 --:--:--  0:01:48 --:--:--     0  0     0    0     0    0     0      0      0 --:--:--  0:01:49 --:--:--     0  0     0    0     0    0     0      0      0 --:--:--  0:01:50 --:--:--     0  0     0    0     0    0     0      0      0 --:--:--  0:01:51 --:--:--     0  0     0    0     0    0     0      0      0 --:--:--  0:01:52 --:--:--     0  0     0    0     0    0     0      0      0 --:--:--  0:01:53 --:--:--     0  0     0    0     0    0     0      0      0 --:--:--  0:01:54 --:--:--     0  0     0    0     0    0     0      0      0 --:--:--  0:01:55 --:--:--     0  0     0    0     0    0     0      0      0 --:--:--  0:01:56 --:--:--     0  0     0    0     0    0     0      0      0 --:--:--  0:01:57 --:--:--     0  0     0    0     0    0     0      0      0 --:--:--  0:01:58 --:--:--     0  0     0    0     0    0     0      0      0 --:--:--  0:01:59 --:--:--     0  0     0    0     0    0     0      0      0 --:--:--  0:02:00 --:--:--     0  0     0    0     0    0     0      0      0 --:--:--  0:02:01 --:--:--     0  0     0    0     0    0     0      0      0 --:--:--  0:02:02 --:--:--     0  0     0    0     0    0     0      0      0 --:--:--  0:02:03 --:--:--     0  0     0    0     0    0     0      0      0 --:--:--  0:02:04 --:--:--     0  0     0    0     0    0     0      0      0 --:--:--  0:02:05 --:--:--     0  0     0    0     0    0     0      0      0 --:--:--  0:02:06 --:--:--     0  0     0    0     0    0     0      0      0 --:--:--  0:02:07 --:--:--     0  0     0    0     0    0     0      0      0 --:--:--  0:02:08 --:--:--     0  0     0    0     0    0     0      0      0 --:--:--  0:02:09 --:--:--     0  0     0    0     0    0     0      0      0 --:--:--  0:02:10 --:--:--     0  0     0    0     0    0     0      0      0 --:--:--  0:02:11 --:--:--     0  0     0    0     0    0     0      0      0 --:--:--  0:02:12 --:--:--     0  0     0    0     0    0     0      0      0 --:--:--  0:02:13 --:--:--     0  0     0    0     0    0     0      0      0 --:--:--  0:02:14 --:--:--     0  0     0    0     0    0     0      0      0 --:--:--  0:02:15 --:--:--     0  0     0    0     0    0     0      0      0 --:--:--  0:02:16 --:--:--     0  0     0    0     0    0     0      0      0 --:--:--  0:02:17 --:--:--     0  0     0    0     0    0     0      0      0 --:--:--  0:02:18 --:--:--     0  0     0    0     0    0     0      0      0 --:--:--  0:02:19 --:--:--     0  0     0    0     0    0     0      0      0 --:--:--  0:02:20 --:--:--     0  0     0    0     0    0     0      0      0 --:--:--  0:02:21 --:--:--     0  0     0    0     0    0     0      0      0 --:--:--  0:02:22 --:--:--     0  0     0    0     0    0     0      0      0 --:--:--  0:02:23 --:--:--     0  0     0    0     0    0     0      0      0 --:--:--  0:02:24 --:--:--     0  0     0    0     0    0     0      0      0 --:--:--  0:02:25 --:--:--     0  0     0    0     0    0     0      0      0 --:--:--  0:02:26 --:--:--     0  0     0    0     0    0     0      0      0 --:--:--  0:02:27 --:--:--     0  0     0    0     0    0     0      0      0 --:--:--  0:02:28 --:--:--     0  0     0    0     0    0     0      0      0 --:--:--  0:02:29 --:--:--     0  0     0    0     0    0     0      0      0 --:--:--  0:02:30 --:--:--     0  0     0    0     0    0     0      0      0 --:--:--  0:02:31 --:--:--     0  0     0    0     0    0     0      0      0 --:--:--  0:02:32 --:--:--     0  0     0    0     0    0     0      0      0 --:--:--  0:02:33 --:--:--     0  0     0    0     0    0     0      0      0 --:--:--  0:02:34 --:--:--     0  0     0    0     0    0     0      0      0 --:--:--  0:02:35 --:--:--     0  0     0    0     0    0     0      0      0 --:--:--  0:02:36 --:--:--     0  0     0    0     0    0     0      0      0 --:--:--  0:02:37 --:--:--     0  0     0    0     0    0     0      0      0 --:--:--  0:02:38 --:--:--     0  0     0    0     0    0     0      0      0 --:--:--  0:02:39 --:--:--     0  0     0    0     0    0     0      0      0 --:--:--  0:02:40 --:--:--     0  0     0    0     0    0     0      0      0 --:--:--  0:02:41 --:--:--     0  0     0    0     0    0     0      0      0 --:--:--  0:02:42 --:--:--     0  0     0    0     0    0     0      0      0 --:--:--  0:02:43 --:--:--     0  0     0    0     0    0     0      0      0 --:--:--  0:02:44 --:--:--     0  0     0    0     0    0     0      0      0 --:--:--  0:02:45 --:--:--     0  0     0    0     0    0     0      0      0 --:--:--  0:02:46 --:--:--     0  0     0    0     0    0     0      0      0 --:--:--  0:02:47 --:--:--     0  0     0    0     0    0     0      0      0 --:--:--  0:02:48 --:--:--     0  0     0    0     0    0     0      0      0 --:--:--  0:02:49 --:--:--     0  0     0    0     0    0     0      0      0 --:--:--  0:02:50 --:--:--     0  0     0    0     0    0     0      0      0 --:--:--  0:02:51 --:--:--     0  0     0    0     0    0     0      0      0 --:--:--  0:02:52 --:--:--     0  0     0    0     0    0     0      0      0 --:--:--  0:02:53 --:--:--     0  0     0    0     0    0     0      0      0 --:--:--  0:02:54 --:--:--     0  0     0    0     0    0     0      0      0 --:--:--  0:02:55 --:--:--     0  0     0    0     0    0     0      0      0 --:--:--  0:02:56 --:--:--     0  0     0    0     0    0     0      0      0 --:--:--  0:02:57 --:--:--     0  0     0    0     0    0     0      0      0 --:--:--  0:02:58 --:--:--     0  0     0    0     0    0     0      0      0 --:--:--  0:02:59 --:--:--     0  0     0    0     0    0     0      0      0 --:--:--  0:03:00 --:--:--     0  0     0    0     0    0     0      0      0 --:--:--  0:03:01 --:--:--     0  0     0    0     0    0     0      0      0 --:--:--  0:03:02 --:--:--     0  0     0    0     0    0     0      0      0 --:--:--  0:03:03 --:--:--     0  0     0    0     0    0     0      0      0 --:--:--  0:03:04 --:--:--     0  0     0    0     0    0     0      0      0 --:--:--  0:03:05 --:--:--     0  0     0    0     0    0     0      0      0 --:--:--  0:03:06 --:--:--     0  0     0    0     0    0     0      0      0 --:--:--  0:03:07 --:--:--     0  0     0    0     0    0     0      0      0 --:--:--  0:03:08 --:--:--     0  0     0    0     0    0     0      0      0 --:--:--  0:03:08 --:--:--     0curl: (7) couldn't connect to host


============================================================================
    cgsubmit Version             : 3.1.1
    CGHub Server                 : https://cghub.ucsc.edu
    Request Type                 : Validation
    Analysis Directory           : /seq/submissions/CGHub/uploading/ac82cac6-ce2f-4cfe-a555-80a275d32878
    UUID                         : ac82cac6-ce2f-4cfe-a555-80a275d32878
    Output File                  : None
----------------------------------------------------------------------------
## Metadata Validation Failed.
============================================================================
