A01413_11_lanes_dupsFlagged.bam	0.5.7	
A01414_10_lanes_dupsFlagged.bam	0.5.7	
A01415_16_lanes_dupsFlagged.bam	0.5.7	
A01416_10_lanes_dupsFlagged.bam	0.5.7	
A01417_9_lanes_dupsFlagged.bam	0.5.7	
A01418_8_lanes_dupsFlagged.bam	0.5.7	
A01419_9_lanes_dupsFlagged.bam	0.5.7	
A01420_9_lanes_dupsFlagged.bam	0.5.7	
A01421_11_lanes_dupsFlagged.bam	0.5.7	
A01422_11_lanes_dupsFlagged.bam	0.5.7	
A01423_14_lanes_dupsFlagged.bam	0.5.7	
A01424_8_lanes_dupsFlagged.bam	0.5.7	
A01425_13_lanes_dupsFlagged.bam	0.5.7	
A01426_10_lanes_dupsFlagged.bam	0.5.7	
A01426_9_lanes_dupsFlagged.bam	0.5.7	
A01427_10_lanes_dupsFlagged.bam	0.5.7	
A01428_A04044_dupsFlagged.bam	0.5.7	
A01429_8_lanes_dupsFlagged.bam	0.5.7	
A01430_10_lanes_dupsFlagged.bam	0.5.7	
A01430_8_lanes_dupsFlagged.bam	0.5.7	
A01431_9_lanes_dupsFlagged.bam	0.5.7	
A01432_8_lanes_dupsFlagged.bam	0.5.7	
A01433_8_lanes_dupsFlagged.bam	0.5.7	
A01434_A06665_dupsFlagged.bam	0.5.7	
A01435_9_lanes_dupsFlagged.bam	0.5.7	
A01436_A06666_dupsFlagged.bam	0.5.7	
A01437_8_lanes_dupsFlagged.bam	0.5.7	
A01438_9_lanes_dupsFlagged.bam	0.5.7	
A01439_9_lanes_dupsFlagged.bam	0.5.7	
A01440_8_lanes_dupsFlagged.bam	0.5.7	
A01441_10_lanes_dupsFlagged.bam	0.5.7	
A01442_9_lanes_dupsFlagged.bam	0.5.7	
A01443_9_lanes_dupsFlagged.bam	0.5.7	
A01444_9_lanes_dupsFlagged.bam	0.5.7	
A01445_8_lanes_dupsFlagged.bam	0.5.7	
A01446_11_lanes_dupsFlagged.bam	0.5.7	
A01447_8_lanes_dupsFlagged.bam	0.5.7	
A01448_8_lanes_dupsFlagged.bam	0.5.7	
A01449_9_lanes_dupsFlagged.bam	0.5.7	
A01450_8_lanes_dupsFlagged.bam	0.5.7	
A01451_8_lanes_dupsFlagged.bam	0.5.7	
A01452_9_lanes_dupsFlagged.bam	0.5.7	
A01453_8_lanes_dupsFlagged.bam	0.5.7	
A01454_A04045_dupsFlagged.bam	0.5.7	
A01455_8_lanes_dupsFlagged.bam	0.5.7	
A01456_10_lanes_dupsFlagged.bam	0.5.7	
A01457_10_lanes_dupsFlagged.bam	0.5.7	
A01458_9_lanes_dupsFlagged.bam	0.5.7	
A01459_A08654_dupsFlagged.bam	0.5.7	
A01460_A01676_dupsFlagged.bam	0.5.7	
A01462_9_lanes_dupsFlagged.bam	0.5.7	
A01677_8_lanes_dupsFlagged.bam	0.5.7	
A01677_9_lanes.bam	0.5.7	
A01677_9_lanes_dupsFlagged.bam	0.5.7	
A01971_9_lanes_dupsFlagged.bam	0.5.7	
A01972_12_lanes_dupsFlagged.bam	0.5.7	
A01973_10_lanes_dupsFlagged.bam	0.5.7	
A01974_8_lanes_dupsFlagged.bam	0.5.7	
A02010_9_lanes_dupsFlagged.bam	0.5.7	
A02011_9_lanes_dupsFlagged.bam	0.5.7	
A03290_A06667_dupsFlagged.bam	0.5.7	
A03291_A06668_dupsFlagged.bam	0.5.7	
A03292_10_lanes_dupsFlagged.bam	0.5.7	
A03293_10_lanes_dupsFlagged.bam	0.5.7	
A03561_8_lanes_dupsFlagged.bam	0.5.7	
A03586_10_lanes_dupsFlagged.bam	0.5.7	
A03587_10_lanes_dupsFlagged.bam	0.5.7	
A03588_10_lanes_dupsFlagged.bam	0.5.7	
A04159_10_lanes_dupsFlagged.bam	0.5.7	
A04160_10_lanes_dupsFlagged.bam	0.5.7	
A04924_10_lanes_dupsFlagged.bam	0.5.7	
A04925_10_lanes_dupsFlagged.bam	0.5.7	
A05282_2_lanes_dupsFlagged_reheader.bam	0.5.7	
A05284_2_lanes_dupsFlagged_reheader.bam	0.5.7	
A06219_10_lanes_dupsFlagged_reheader.bam	0.5.7	
A06220_10_lanes_dupsFlagged_reheader.bam	0.5.7	
A06221_10_lanes_dupsFlagged_reheader.bam	0.5.7	
A06222_10_lanes_dupsFlagged_reheader.bam	0.5.7	
A06417_9_lanes_dupsFlagged.bam	0.5.7	
A06419_8_lanes_dupsFlagged.bam	0.5.7	
A06420_A08655_dupsFlagged.bam	0.5.7	
A06422_8_lanes_dupsFlagged.bam	0.5.7	
A06720_8_lanes_dupsFlagged.bam	0.5.7	
A06721_8_lanes_dupsFlagged.bam	0.5.7	
A08361_7_lanes_dupsFlagged_reheader.bam	0.5.7	
A08443_A06418_dupsFlagged.bam	0.5.7	
A08444_A06421_dupsFlagged.bam	0.5.7	
A08913_7_lanes_dupsFlagged_reheader.bam	0.5.7	
A18665_4_lanes_dupsFlagged.bam	0.5.7	
A18666_4_lanes_dupsFlagged.bam	0.5.7	
A18667_4_lanes_dupsFlagged.bam	0.5.7	
A18668_4_lanes_dupsFlagged.bam	0.5.7	
A18669_4_lanes_dupsFlagged.bam	0.5.7	
A18670_4_lanes_dupsFlagged.bam	0.5.7	
A18671_4_lanes_dupsFlagged.bam	0.5.7	
A18672_4_lanes_dupsFlagged.bam	0.5.7	
A18673_4_lanes_dupsFlagged.bam	0.5.7	
A18674_4_lanes_dupsFlagged.bam	0.5.7	
A18675_4_lanes_dupsFlagged.bam	0.5.7	
A18676_4_lanes_dupsFlagged.bam	0.5.7	
A18677_4_lanes_dupsFlagged.bam	0.5.7	
A18678_4_lanes_dupsFlagged.bam	0.5.7	
A18679_4_lanes_dupsFlagged.bam	0.5.7	
A18680_4_lanes_dupsFlagged.bam	0.5.7	
A18681_4_lanes_dupsFlagged.bam	0.5.7	
A18682_4_lanes_dupsFlagged.bam	0.5.7	
A18683_4_lanes_dupsFlagged.bam	0.5.7	
A18684_4_lanes_dupsFlagged.bam	0.5.7	
A18685_4_lanes_dupsFlagged.bam	0.5.7	
A18686_4_lanes_dupsFlagged.bam	0.5.7	
A18687_4_lanes_dupsFlagged.bam	0.5.7	
A18688_4_lanes_dupsFlagged.bam	0.5.7	
A18689_4_lanes_dupsFlagged.bam	0.5.7	
A18690_4_lanes_dupsFlagged.bam	0.5.7	
A18691_4_lanes_dupsFlagged.bam	0.5.7	
A18692_4_lanes_dupsFlagged.bam	0.5.7	
D0CM7ACXX_3_AAGCTA.bam	0.5.7	
D0CM7ACXX_3_ACATCG.bam	0.5.7	
D0CM7ACXX_3_ATGTTT.bam	0.5.7	
D0CM7ACXX_3_ATTGGC.bam	0.5.7	
D0CM7ACXX_3_CAAGTT.bam	0.5.7	
D0CM7ACXX_3_CGTACG.bam	0.5.7	
D0CM7ACXX_3_CGTGAT.bam	0.5.7	
D0CM7ACXX_3_CTGATC.bam	0.5.7	
D0CM7ACXX_3_GATCTG.bam	0.5.7	
D0CM7ACXX_3_GCATTT.bam	0.5.7	
D0CM7ACXX_3_GGGGTT.bam	0.5.7	
D0CM7ACXX_3_GTAGCC.bam	0.5.7	
D0CM7ACXX_3_TACAAG.bam	0.5.7	
D0CM7ACXX_3_TCAAGT.bam	0.5.7	
D0CM7ACXX_3_TGCTTT.bam	0.5.7	
D0CM7ACXX_3_TGGTCA.bam	0.5.7	
D0CM7ACXX_4_AAGCTA.bam	0.5.7	
D0CM7ACXX_4_ACATCG.bam	0.5.7	
D0CM7ACXX_4_ATGTTT.bam	0.5.7	
D0CM7ACXX_4_ATTGGC.bam	0.5.7	
D0CM7ACXX_4_CAAGTT.bam	0.5.7	
D0CM7ACXX_4_CGTACG.bam	0.5.7	
D0CM7ACXX_4_CGTGAT.bam	0.5.7	
D0CM7ACXX_4_CTGATC.bam	0.5.7	
D0CM7ACXX_4_GATCTG.bam	0.5.7	
D0CM7ACXX_4_GCATTT.bam	0.5.7	
D0CM7ACXX_4_GGGGTT.bam	0.5.7	
D0CM7ACXX_4_GTAGCC.bam	0.5.7	
D0CM7ACXX_4_TACAAG.bam	0.5.7	
D0CM7ACXX_4_TCAAGT.bam	0.5.7	
D0CM7ACXX_4_TGCTTT.bam	0.5.7	
D0CM7ACXX_4_TGGTCA.bam	0.5.7	
D0CM7ACXX_5_AAGCTA.bam	0.5.7	
D0CM7ACXX_5_ACATCG.bam	0.5.7	
D0CM7ACXX_5_ATGTTT.bam	0.5.7	
D0CM7ACXX_5_ATTGGC.bam	0.5.7	
D0CM7ACXX_5_CAAGTT.bam	0.5.7	
D0CM7ACXX_5_CGTACG.bam	0.5.7	
D0CM7ACXX_5_CGTGAT.bam	0.5.7	
D0CM7ACXX_5_CTGATC.bam	0.5.7	
D0CM7ACXX_5_GATCTG.bam	0.5.7	
D0CM7ACXX_5_GCATTT.bam	0.5.7	
D0CM7ACXX_5_GGGGTT.bam	0.5.7	
D0CM7ACXX_5_GTAGCC.bam	0.5.7	
D0CM7ACXX_5_TACAAG.bam	0.5.7	
D0CM7ACXX_5_TCAAGT.bam	0.5.7	
D0CM7ACXX_5_TGCTTT.bam	0.5.7	
D0CM7ACXX_5_TGGTCA.bam	0.5.7	
D0CM7ACXX_6_ACATCG.bam	0.5.7	
D0CM7ACXX_6_ATGTTT.bam	0.5.7	
D0CM7ACXX_6_ATTGGC.bam	0.5.7	
D0CM7ACXX_6_CGTACG.bam	0.5.7	
D0CM7ACXX_6_CGTGAT.bam	0.5.7	
D0CM7ACXX_6_CTGATC.bam	0.5.7	
D0CM7ACXX_6_GATCTG.bam	0.5.7	
D0CM7ACXX_6_GCATTT.bam	0.5.7	
D0CM7ACXX_6_GGGGTT.bam	0.5.7	
D0CM7ACXX_6_GTAGCC.bam	0.5.7	
D0CM7ACXX_6_TACAAG.bam	0.5.7	
D0CM7ACXX_6_TCAAGT.bam	0.5.7	
D0CM7ACXX_6_TGCTTT.bam	0.5.7	
D0CM7ACXX_6_TGGTCA.bam	0.5.7	
D0CM7ACXX_7_ACATCG.bam	0.5.7	
D0CM7ACXX_7_ATGTTT.bam	0.5.7	
D0CM7ACXX_7_ATTGGC.bam	0.5.7	
D0CM7ACXX_7_CGTACG.bam	0.5.7	
D0CM7ACXX_7_CGTGAT.bam	0.5.7	
D0CM7ACXX_7_CTGATC.bam	0.5.7	
D0CM7ACXX_7_GATCTG.bam	0.5.7	
D0CM7ACXX_7_GCATTT.bam	0.5.7	
D0CM7ACXX_7_GGGGTT.bam	0.5.7	
D0CM7ACXX_7_GTAGCC.bam	0.5.7	
D0CM7ACXX_7_TACAAG.bam	0.5.7	
D0CM7ACXX_7_TCAAGT.bam	0.5.7	
D0CM7ACXX_7_TGCTTT.bam	0.5.7	
D0CM7ACXX_7_TGGTCA.bam	0.5.7	
D0L7PACXX_1_AAGCTA.bam	0.5.7	
D0L7PACXX_1_ACATCG.bam	0.5.7	
D0L7PACXX_1_ATGTTT.bam	0.5.7	
D0L7PACXX_1_ATTGGC.bam	0.5.7	
D0L7PACXX_1_CAAGTT.bam	0.5.7	
D0L7PACXX_1_CGTACG.bam	0.5.7	
D0L7PACXX_1_CGTGAT.bam	0.5.7	
D0L7PACXX_1_CTGATC.bam	0.5.7	
D0L7PACXX_1_GATCTG.bam	0.5.7	
D0L7PACXX_1_GCATTT.bam	0.5.7	
D0L7PACXX_1_GGGGTT.bam	0.5.7	
D0L7PACXX_1_GTAGCC.bam	0.5.7	
D0L7PACXX_1_TACAAG.bam	0.5.7	
D0L7PACXX_1_TCAAGT.bam	0.5.7	
D0L7PACXX_1_TGCTTT.bam	0.5.7	
D0L7PACXX_1_TGGTCA.bam	0.5.7	
D0L7PACXX_2_AAGCTA.bam	0.5.7	
D0L7PACXX_2_ACATCG.bam	0.5.7	
D0L7PACXX_2_ATGTTT.bam	0.5.7	
D0L7PACXX_2_ATTGGC.bam	0.5.7	
D0L7PACXX_2_CAAGTT.bam	0.5.7	
D0L7PACXX_2_CGTACG.bam	0.5.7	
D0L7PACXX_2_CGTGAT.bam	0.5.7	
D0L7PACXX_2_CTGATC.bam	0.5.7	
D0L7PACXX_2_GATCTG.bam	0.5.7	
D0L7PACXX_2_GCATTT.bam	0.5.7	
D0L7PACXX_2_GGGGTT.bam	0.5.7	
D0L7PACXX_2_GTAGCC.bam	0.5.7	
D0L7PACXX_2_TACAAG.bam	0.5.7	
D0L7PACXX_2_TCAAGT.bam	0.5.7	
D0L7PACXX_2_TGCTTT.bam	0.5.7	
D0L7PACXX_2_TGGTCA.bam	0.5.7	
D0L7PACXX_3_AAGCTA.bam	0.5.7	
D0L7PACXX_3_ACATCG.bam	0.5.7	
D0L7PACXX_3_ATGTTT.bam	0.5.7	
D0L7PACXX_3_ATTGGC.bam	0.5.7	
D0L7PACXX_3_CAAGTT.bam	0.5.7	
D0L7PACXX_3_CGTACG.bam	0.5.7	
D0L7PACXX_3_CGTGAT.bam	0.5.7	
D0L7PACXX_3_CTGATC.bam	0.5.7	
D0L7PACXX_3_GATCTG.bam	0.5.7	
D0L7PACXX_3_GCATTT.bam	0.5.7	
D0L7PACXX_3_GGGGTT.bam	0.5.7	
D0L7PACXX_3_GTAGCC.bam	0.5.7	
D0L7PACXX_3_TACAAG.bam	0.5.7	
D0L7PACXX_3_TCAAGT.bam	0.5.7	
D0L7PACXX_3_TGCTTT.bam	0.5.7	
D0L7PACXX_3_TGGTCA.bam	0.5.7	
D0L7PACXX_4_AAGCTA.bam	0.5.7	
D0L7PACXX_4_ACATCG.bam	0.5.7	
D0L7PACXX_4_ATGTTT.bam	0.5.7	
D0L7PACXX_4_ATTGGC.bam	0.5.7	
D0L7PACXX_4_CAAGTT.bam	0.5.7	
D0L7PACXX_4_CGTACG.bam	0.5.7	
D0L7PACXX_4_CGTGAT.bam	0.5.7	
D0L7PACXX_4_CTGATC.bam	0.5.7	
D0L7PACXX_4_GATCTG.bam	0.5.7	
D0L7PACXX_4_GCATTT.bam	0.5.7	
D0L7PACXX_4_GGGGTT.bam	0.5.7	
D0L7PACXX_4_GTAGCC.bam	0.5.7	
D0L7PACXX_4_TACAAG.bam	0.5.7	
D0L7PACXX_4_TCAAGT.bam	0.5.7	
D0L7PACXX_4_TGCTTT.bam	0.5.7	
D0L7PACXX_4_TGGTCA.bam	0.5.7	
D0L7PACXX_5_ACATCG.bam	0.5.7	
D0L7PACXX_5_ATGTTT.bam	0.5.7	
D0L7PACXX_5_ATTGGC.bam	0.5.7	
D0L7PACXX_5_CGTACG.bam	0.5.7	
D0L7PACXX_5_CGTGAT.bam	0.5.7	
D0L7PACXX_5_CTGATC.bam	0.5.7	
D0L7PACXX_5_GATCTG.bam	0.5.7	
D0L7PACXX_5_GCATTT.bam	0.5.7	
D0L7PACXX_5_GGGGTT.bam	0.5.7	
D0L7PACXX_5_GTAGCC.bam	0.5.7	
D0L7PACXX_5_TACAAG.bam	0.5.7	
D0L7PACXX_5_TCAAGT.bam	0.5.7	
D0L7PACXX_5_TGCTTT.bam	0.5.7	
D0L7PACXX_5_TGGTCA.bam	0.5.7	
D0L7PACXX_6_ACATCG.bam	0.5.7	
D0L7PACXX_6_ATGTTT.bam	0.5.7	
D0L7PACXX_6_ATTGGC.bam	0.5.7	
D0L7PACXX_6_CGTACG.bam	0.5.7	
D0L7PACXX_6_CGTGAT.bam	0.5.7	
D0L7PACXX_6_CTGATC.bam	0.5.7	
D0L7PACXX_6_GATCTG.bam	0.5.7	
D0L7PACXX_6_GCATTT.bam	0.5.7	
D0L7PACXX_6_GGGGTT.bam	0.5.7	
D0L7PACXX_6_GTAGCC.bam	0.5.7	
D0L7PACXX_6_TACAAG.bam	0.5.7	
D0L7PACXX_6_TCAAGT.bam	0.5.7	
D0L7PACXX_6_TGCTTT.bam	0.5.7	
D0L7PACXX_6_TGGTCA.bam	0.5.7	
D0L7PACXX_7_AAGCTA.bam	0.5.7	
D0L7PACXX_7_ACATCG.bam	0.5.7	
D0L7PACXX_7_ATGTTT.bam	0.5.7	
D0L7PACXX_7_ATTGGC.bam	0.5.7	
D0L7PACXX_7_CAAGTT.bam	0.5.7	
D0L7PACXX_7_CGTACG.bam	0.5.7	
D0L7PACXX_7_CGTGAT.bam	0.5.7	
D0L7PACXX_7_CTGATC.bam	0.5.7	
D0L7PACXX_7_GATCTG.bam	0.5.7	
D0L7PACXX_7_GCATTT.bam	0.5.7	
D0L7PACXX_7_GGGGTT.bam	0.5.7	
D0L7PACXX_7_GTAGCC.bam	0.5.7	
D0L7PACXX_7_TACAAG.bam	0.5.7	
D0L7PACXX_7_TCAAGT.bam	0.5.7	
D0L7PACXX_7_TGCTTT.bam	0.5.7	
D0L7PACXX_7_TGGTCA.bam	0.5.7	
HS0637_4_lanes_dupsFlagged.bam	0.5.7	
HS0637_8_lanes_dupsFlagged.bam	0.5.7	
HS0639_7_lanes_withJunctionsOnGenome_dupsFlagged.bam	0.5.7	
HS0640_7_lanes_withJunctionsOnGenome_dupsFlagged.bam	0.5.7	
HS0641_3_lanes_withJunctionsOnGenome_dupsFlagged.bam	0.5.7	
HS0644_19_lanes_dupsFlagged.bam	0.5.7	
HS0644_7_lanes_withJunctionsOnGenome_dupsFlagged.bam	0.5.7	
HS0645_7_lanes_withJunctionsOnGenome_dupsFlagged.bam	0.5.7	
HS0646_7_lanes_withJunctionsOnGenome_dupsFlagged.bam	0.5.7	
HS0647_8_lanes_dupsFlagged.bam	0.5.7	
HS0648_7_lanes_withJunctionsOnGenome_dupsFlagged.bam	0.5.7	
HS0649_7_lanes_withJunctionsOnGenome_dupsFlagged.bam	0.5.7	
HS0650_7_lanes_withJunctionsOnGenome_dupsFlagged.bam	0.5.7	
HS0651_7_lanes_withJunctionsOnGenome_dupsFlagged.bam	0.5.7	
HS0652_7_lanes_withJunctionsOnGenome_dupsFlagged.bam	0.5.7	
HS0653_7_lanes_withJunctionsOnGenome_dupsFlagged.bam	0.5.7	
HS0654_7_lanes_withJunctionsOnGenome_dupsFlagged.bam	0.5.7	
HS0656_7_lanes_withJunctionsOnGenome_dupsFlagged.bam	0.5.7	
HS0733_8_lanes_dupsFlagged.bam	0.5.7	
HS0747_6_lanes_dupsFlagged.bam	0.5.7	
HS0748_7_lanes_dupsFlagged.bam	0.5.7	
HS0749_7_lanes_chaste_withJunctionsOnGenome_dupsFlagged.bam	0.5.7	
HS0750_7_lanes_withJunctionsOnGenome_dupsFlagged.bam	0.5.7	
HS0751_7_lanes_withJunctionsOnGenome_dupsFlagged.bam	0.5.7	
HS0804_7_lanes_withJunctionsOnGenome_dupsFlagged.bam	0.5.7	
HS0821_14_lanes_dupsFlagged.bam	0.5.7	
HS0825_7_lanes_dupsFlagged.bam	0.5.7	
HS0894_7_lanes_dupsFlagged_1.bam	0.5.7	
HS0894_7_lanes_dupsFlagged_2.bam	0.5.7	
HS0896_35_lanes_dupsFlagged.bam	0.5.7	
HS0897_7_lanes_dupsFlagged.bam	0.5.7	
HS0926_7_lanes_withJunctionsOnGenome_dupsFlagged.bam	0.5.7	
HS0927_7_lanes_withJunctionsOnGenome_dupsFlagged.bam	0.5.7	
HS0928_7_lanes_withJunctionsOnGenome_dupsFlagged.bam	0.5.7	
HS0929_7_lanes_withJunctionsOnGenome_dupsFlagged.bam	0.5.7	
HS0930_7_lanes_withJunctionsOnGenome_dupsFlagged.bam	0.5.7	
HS0931_7_lanes_withJunctionsOnGenome_dupsFlagged.bam	0.5.7	
HS0932_7_lanes_withJunctionsOnGenome_dupsFlagged.bam	0.5.7	
HS0933_7_lanes_withJunctionsOnGenome_dupsFlagged.bam	0.5.7	
HS0934_7_lanes_withJunctionsOnGenome_dupsFlagged.bam	0.5.7	
HS0935_7_lanes_withJunctionsOnGenome_dupsFlagged.bam	0.5.7	
HS0936_7_lanes_withJunctionsOnGenome_dupsFlagged.bam	0.5.7	
HS0937_7_lanes_withJunctionsOnGenome_dupsFlagged.bam	0.5.7	
HS0938_7_lanes_withJunctionsOnGenome_dupsFlagged.bam	0.5.7	
HS0939_7_lanes_withJunctionsOnGenome_dupsFlagged.bam	0.5.7	
HS0940_7_lanes_withJunctionsOnGenome_dupsFlagged.bam	0.5.7	
HS0941_5_lanes_withJunctionsOnGenome_dupsFlagged.bam	0.5.7	
HS0942_7_lanes_chaste_withJunctionsOnGenome_dupsFlagged.bam	0.5.7	
HS0943_7_lanes_chaste_withJunctionsOnGenome_dupsFlagged.bam	0.5.7	
HS0944_7_lanes_withJunctionsOnGenome_dupsFlagged.bam	0.5.7	
HS1131_7_lanes_withJunctionsOnGenome_dupsFlagged.bam	0.5.7	
HS1132_7_lanes_withJunctionsOnGenome_dupsFlagged.bam	0.5.7	
HS1133_7_lanes_withJunctionsOnGenome_dupsFlagged.bam	0.5.7	
HS1134_4_lanes_withJunctionsOnGenome_dupsFlagged.bam	0.5.7	
HS1135_7_lanes_withJunctionsOnGenome_dupsFlagged.bam	0.5.7	
HS1136_7_lanes_withJunctionsOnGenome_dupsFlagged.bam	0.5.7	
HS1137_7_lanes_withJunctionsOnGenome_dupsFlagged.bam	0.5.7	
HS1138_7_lanes_withJunctionsOnGenome_dupsFlagged.bam	0.5.7	
HS1164_7_lanes_withJunctionsOnGenome_dupsFlagged.bam	0.5.7	
HS1181_7_lanes_withJunctionsOnGenome_dupsFlagged.bam	0.5.7	
HS1184_4_lanes_withJunctionsOnGenome_dupsFlagged.bam	0.5.7	
HS1185_4_lanes_withJunctionsOnGenome_dupsFlagged.bam	0.5.7	
HS1186_4_lanes_withJunctionsOnGenome_dupsFlagged.bam	0.5.7	
HS1194_7_lanes_dupsFlagged.bam	0.5.7	
HS1195_7_lanes_dupsFlagged.bam	0.5.7	
HS1196_7_lanes_dupsFlagged.bam	0.5.7	
HS1197_7_lanes_dupsFlagged.bam	0.5.7	
HS1198_7_lanes_dupsFlagged.bam	0.5.7	
HS1199_4_lanes_withJunctionsOnGenome_dupsFlagged.bam	0.5.7	
HS1200_4_lanes_withJunctionsOnGenome_dupsFlagged.bam	0.5.7	
HS1201_4_lanes_withJunctionsOnGenome_dupsFlagged.bam	0.5.7	
HS1202_8_lanes_withJunctionsOnGenome_dupsFlagged.bam	0.5.7	
HS1203_4_lanes_withJunctionsOnGenome_dupsFlagged.bam	0.5.7	
HS1204_4_lanes_withJunctionsOnGenome_dupsFlagged.bam	0.5.7	
HS1205_4_lanes_withJunctionsOnGenome_dupsFlagged.bam	0.5.7	
HS1322_14_lanes_dupsFlagged.bam	0.5.7	
HS1323_14_lanes_dupsFlagged.bam	0.5.7	
HS1324_14_lanes_dupsFlagged.bam	0.5.7	
HS1350_7_lanes_withJunctionsOnGenome_dupsFlagged.bam	0.5.7	
HS1352_4_lanes_withJunctionsOnGenome_dupsFlagged.bam	0.5.7	
HS1356_4_lanes_withJunctionsOnGenome_dupsFlagged.bam	0.5.7	
HS1358_7_lanes_withJunctionsOnGenome_dupsFlagged.bam	0.5.7	
HS1360_4_lanes_withJunctionsOnGenome_dupsFlagged.bam	0.5.7	
HS1361_4_lanes_withJunctionsOnGenome_dupsFlagged.bam	0.5.7	
HS1452_7_lanes_withJunctionsOnGenome_dupsFlagged.bam	0.5.7	
HS1452_8_lanes_withJunctionsOnGenome_dupsFlagged.bam	0.5.7	
HS1454_7_lanes_withJunctionsOnGenome_dupsFlagged.bam	0.5.7	
HS1456_7_lanes_withJunctionsOnGenome_dupsFlagged.bam	0.5.7	
HS1456_8_lanes_withJunctionsOnGenome_dupsFlagged_dupsFlagged.bam	0.5.7	
HS1458_6_lanes_dupsFlagged.bam	0.5.7	
HS1460_7_lanes_withJunctionsOnGenome_dupsFlagged.bam	0.5.7	
HS1462_4_lanes_withJunctionsOnGenome_dupsFlagged.bam	0.5.7	
HS1533_5_lanes_dupsFlagged.bam	0.5.7	
HS1534_5_lanes_dupsFlagged.bam	0.5.7	
HS1535_4_lanes_dupsFlagged.bam	0.5.7	
HS1536_4_lanes_dupsFlagged.bam	0.5.7	
HS1537_5_lanes_dupsFlagged.bam	0.5.7	
HS1543_4_lanes_dupsFlagged.bam	0.5.7	
HS1544_4_lanes_dupsFlagged.bam	0.5.7	
HS1545_16_lanes_dupsFlagged.bam	0.5.7	
HS1546_4_lanes_dupsFlagged.bam	0.5.7	
HS1547_4_lanes_dupsFlagged.bam	0.5.7	
HS1548_16_lanes_dupsFlagged.bam	0.5.7	
HS1555_4_lanes_withJunctionsOnGenome_dupsFlagged.bam	0.5.7	
HS1556_4_lanes_withJunctionsOnGenome_dupsFlagged.bam	0.5.7	
HS1557_4_lanes_withJunctionsOnGenome_dupsFlagged.bam	0.5.7	
HS1558_4_lanes_withJunctionsOnGenome_dupsFlagged.bam	0.5.7	
HS1559_4_lanes_withJunctionsOnGenome_dupsFlagged.bam	0.5.7	
HS1576_4_lanes_dupsFlagged.bam	0.5.7	
HS1577_4_lanes_dupsFlagged.bam	0.5.7	
HS1584_4_lanes_dupsFlagged.bam	0.5.7	
HS1599_29_lanes_dupsFlagged_1.bam	0.5.7	
HS1599_29_lanes_dupsFlagged_2.bam	0.5.7	
HS1780_31_lanes_dupsFlagged.bam	0.5.7	
HS1781_30_lanes_dupsFlagged.bam	0.5.7	
HS1782_31_lanes_dupsFlagged.bam	0.5.7	
HS1783_36_lanes_dupsFlagged.bam	0.5.7	
HS1784_30_lanes_dupsFlagged.bam	0.5.7	
HS1786_2_lanes_dupsFlagged.bam	0.5.7	
HS1787_2_lanes_dupsFlagged.bam	0.5.7	
HS1788_2_lanes_dupsFlagged.bam	0.5.7	
HS1789_2_lanes_dupsFlagged.bam	0.5.7	
HS1794_30_lanes_dupsFlagged.bam	0.5.7	
HS1795_4_lanes_dupsFlagged.bam	0.5.7	
HS1796_30_lanes_dupsFlagged.bam	0.5.7	
HS1797_4_lanes_dupsFlagged.bam	0.5.7	
HS1798_31_lanes_dupsFlagged.bam	0.5.7	
HS1799_4_lanes_dupsFlagged.bam	0.5.7	
HS1800_28_lanes_dupsFlagged.bam	0.5.7	
HS1801_4_lanes_dupsFlagged.bam	0.5.7	
HS1802_33_lanes_dupsFlagged.bam	0.5.7	
HS1803_4_lanes_dupsFlagged.bam	0.5.7	
HS1843_1_lane_dupsFlagged.bam	0.5.7	
HS1846_1_lane_dupsFlagged.bam	0.5.7	
HS1974_3_lanes_withJunctionsOnGenome_dupsFlagged.bam	0.5.7	
HS1975_3_lanes_withJunctionsOnGenome_dupsFlagged.bam	0.5.7	
HS1976_3_lanes_withJunctionsOnGenome_dupsFlagged.bam	0.5.7	
HS1977_3_lanes_withJunctionsOnGenome_dupsFlagged.bam	0.5.7	
HS1978_3_lanes_withJunctionsOnGenome_dupsFlagged.bam	0.5.7	
HS1979_4_lanes_dupsFlagged.bam	0.5.7	
HS1980_4_lanes_withJunctionsOnGenome_dupsFlagged.bam	0.5.7	
HS1981_4_lanes_withJunctionsOnGenome_dupsFlagged.bam	0.5.7	
HS1982_4_lanes_withJunctionsOnGenome_dupsFlagged.bam	0.5.7	
HS1983_4_lanes_withJunctionsOnGenome_dupsFlagged.bam	0.5.7	
HS1984_4_lanes_dupsFlagged.bam	0.5.7	
HS2048_3_lanes_dupsFlagged.bam	0.5.7	
HS2049_3_lanes_dupsFlagged.bam	0.5.7	
HS2050_3_lanes_withJunctionsOnGenome_dupsFlagged.bam	0.5.7	
HS2051_3_lanes_withJunctionsOnGenome_dupsFlagged.bam	0.5.7	
HS2053_3_lanes_withJunctionsOnGenome_dupsFlagged.bam	0.5.7	
HS2054_3_lanes_dupsFlagged.bam	0.5.7	
HS2055_3_lanes_withJunctionsOnGenome_dupsFlagged.bam	0.5.7	
HS2056_3_lanes_withJunctionsOnGenome_dupsFlagged.bam	0.5.7	
HS2058_3_lanes_withJunctionsOnGenome_dupsFlagged.bam	0.5.7	
HS2059_3_lanes_withJunctionsOnGenome_dupsFlagged.bam	0.5.7	
HS2060_3_lanes_withJunctionsOnGenome_dupsFlagged.bam	0.5.7	
HS2163_3_lanes_dupsFlagged.bam	0.5.7	
HS2248_3_lanes_dupsFlagged.bam	0.5.7	
HS2249_3_lanes_withJunctionsOnGenome_dupsFlagged.bam	0.5.7	
HS2250_3_lanes_withJunctionsOnGenome_dupsFlagged.bam	0.5.7	
HS2251_3_lanes_withJunctionsOnGenome_dupsFlagged.bam	0.5.7	
HS2252_3_lanes_dupsFlagged.bam	0.5.7	
HS2604_2_lanes_dupsFlagged.bam	0.5.7	
HS2605_3_lanes_dupsFlagged.bam	0.5.7	
HS2606_3_lanes_dupsFlagged.bam	0.5.7	
HS2607_3_lanes_dupsFlagged.bam	0.5.7	
HS2642_1_lane_dupsFlagged.bam	0.5.7	
HS2644_3_lanes_dupsFlagged.bam	0.5.7	
HS2702_8_lanes_dupsFlagged.bam	0.5.7	
HS2703_8_lanes_dupsFlagged.bam	0.5.7	
HS2704_8_lanes_dupsFlagged.bam	0.5.7	
HS2705_9_lanes_dupsFlagged.bam	0.5.7	
HS2706_8_lanes_dupsFlagged.bam	0.5.7	
HS2707_9_lanes_dupsFlagged.bam	0.5.7	
HS2718_5_lanes_dupsFlagged.bam	0.5.7	
HS2772_14_lanes_dupsFlagged.bam	0.5.7	
HS2773_17_lanes_dupsFlagged.bam	0.5.7	
HS2937_2_lanes_dupsFlagged.bam	0.5.7	
HS2938_2_lanes_dupsFlagged.bam	0.5.7	
HS2939_2_lanes_dupsFlagged.bam	0.5.7	
HS2940_2_lanes_dupsFlagged.bam	0.5.7	
HS2970_9_lanes_dupsFlagged.bam	0.5.7	
HS2971_9_lanes.bam	0.5.7	
HS2972_A01126_dupsFlagged.bam	0.5.7	
HS2973_A01127_dupsFlagged.bam	0.5.7	
HS2974_A01128_dupsFlagged.bam	0.5.7	
HS2975_A01129_dupsFlagged.bam	0.5.7	
HS3014_4_lanes_dupsFlagged.bam	0.5.7	
HS3105_2_lanes_dupsFlagged.bam	0.5.7	
HS3120_2_lanes_dupsFlagged.bam	0.5.7	
HS3129_2_lanes_dupsFlagged.bam	0.5.7	
HS3136_2_lanes_dupsFlagged.bam	0.5.7	
PAKFVX_Normal_DNA.bam	0.5.7	
PAKFVX_Tumor_DNA.bam	0.5.7	
PAKFVX_Tumor_RNA.bam	0.5.7	
PAKXLD_Normal_DNA.bam	0.5.7	
PAKXLD_Tumor_DNA.bam	0.5.7	
PAKZZK_Normal_DNA.bam	0.5.7	
PAKZZK_Tumor_DNA.bam	0.5.7	
PAKZZK_Tumor_RNA.bam	0.5.7	
PALECC_Tumor_DNA.bam	0.5.7	
PALECC_Tumor_RNA.bam	0.5.7	
PALFYN_Normal_DNA.bam	0.5.7	
PALFYN_Tumor_DNA.bam	0.5.7	
PALFYN_Tumor_RNA.bam	0.5.7	
PALHRL_Normal_DNA.bam	0.5.7	
PALHRL_Tumor_DNA.bam	0.5.7	
PALHRL_Tumor_RNA.bam	0.5.7	
PALKDP_Normal_DNA.bam	0.5.7	
PALKDP_Tumor_DNA.bam	0.5.7	
PALKDP_Tumor_RNA.bam	0.5.7	
PALKGN_Normal_DNA.bam	0.5.7	
PALKGN_Tumor_DNA.bam	0.5.7	
PALKGN_Tumor_RNA.bam	0.5.7	
PALWWX_Normal_DNA.bam	0.5.7	
PALWWX_Tumor_DNA.bam	0.5.7	
PALWWX_Tumor_RNA.bam	0.5.7	
PALZGU_Normal_DNA.bam	0.5.7	
PALZGU_Tumor_DNA.bam	0.5.7	
PALZGU_Tumor_RNA.bam	0.5.7	
PAMEKS_Normal_DNA.bam	0.5.7	
PAMEKS_Tumor_DNA.bam	0.5.7	
PAMEKS_Tumor_RNA.bam	0.5.7	
PAMHLF_Normal_DNA.bam	0.5.7	
PAMHLF_Tumor_DNA.bam	0.5.7	
PAMHLF_Tumor_RNA.bam	0.5.7	
PAMHYN_Normal_DNA.bam	0.5.7	
PAMHYN_Tumor_DNA.bam	0.5.7	
PAMHYN_Tumor_RNA.bam	0.5.7	
PAMJXS_Normal_DNA.bam	0.5.7	
PAMJXS_Tumor_DNA.bam	0.5.7	
PAMJXS_Tumor_RNA.bam	0.5.7	
PAMLKS_Normal_DNA.bam	0.5.7	
PAMLKS_Tumor_DNA.bam	0.5.7	
PAMLKS_Tumor_RNA.bam	0.5.7	
PAMRHD_Normal_DNA.bam	0.5.7	
PAMRHD_Tumor_DNA.bam	0.5.7	
PAMRHD_Tumor_RNA.bam	0.5.7	
PAMTCM_Normal_DNA.bam	0.5.7	
PAMTCM_Tumor_DNA.bam	0.5.7	
PAMTCM_Tumor_RNA.bam	0.5.7	
PAMYYJ_Normal_DNA.bam	0.5.7	
PAMYYJ_Tumor_DNA.bam	0.5.7	
PAMYYJ_Tumor_RNA.bam	0.5.7	
PANGPE_Normal_DNA.bam	0.5.7	
PANGPE_Tumor_RNA.bam	0.5.7	
PANGRW_Normal_DNA.bam	0.5.7	
PANGRW_Tumor_DNA.bam	0.5.7	
PANGRW_Tumor_RNA.bam	0.5.7	
PANMIG_Normal_DNA.bam	0.5.7	
PANMIG_Tumor_DNA.bam	0.5.7	
PANMIG_Tumor_RNA.bam	0.5.7	
PANPUM_Normal_DNA.bam	0.5.7	
PANPUM_Tumor_DNA.bam	0.5.7	
PANPUM_Tumor_RNA.bam	0.5.7	
PANSEN_Normal_DNA.bam	0.5.7	
PANSEN_Tumor_DNA.bam	0.5.7	
PANSEN_Tumor_RNA.bam	0.5.7	
PANVJJ_Normal_DNA.bam	0.5.7	
PANVJJ_Tumor_DNA.bam	0.5.7	
PANVJJ_Tumor_RNA.bam	0.5.7	
PANXSC_Normal_DNA.bam	0.5.7	
PANXSC_Tumor_DNA.bam	0.5.7	
PANXSC_Tumor_RNA.bam	0.5.7	
PANZHX_Normal_DNA.bam	0.5.7	
PANZHX_Tumor_DNA.bam	0.5.7	
PANZHX_Tumor_RNA.bam	0.5.7	
PANZZJ_Normal_DNA.bam	0.5.7	
PANZZJ_Tumor_DNA.bam	0.5.7	
PANZZJ_Tumor_RNA.bam	0.5.7	
PAPFLB_Normal_DNA.bam	0.5.7	
PAPFLB_Tumor_RNA.bam	0.5.7	
PAPKWD_Normal_DNA.bam	0.5.7	
PAPKWD_Tumor_DNA.bam	0.5.7	
PAPKWD_Tumor_RNA.bam	0.5.7	
PAPNVD_Normal_DNA.bam	0.5.7	
PAPNVD_Tumor_DNA.bam	0.5.7	
PAPNVD_Tumor_RNA.bam	0.5.7	
PAPVYW_Normal_DNA.bam	0.5.7	
PAPVYW_Tumor_DNA.bam	0.5.7	
PAPWWC_Normal_DNA.bam	0.5.7	
PAPWWC_Tumor_DNA.bam	0.5.7	
PAPWWC_Tumor_RNA.bam	0.5.7	
PAPXGT_Normal_DNA.bam	0.5.7	
PAPXGT_Tumor_DNA.bam	0.5.7	
PAPXGT_Tumor_RNA.bam	0.5.7	
PARBGW_Normal_DNA.bam	0.5.7	
PARBGW_Tumor_DNA.bam	0.5.7	
PARBGW_Tumor_RNA.bam	0.5.7	
PARDAX_Normal_DNA.bam	0.5.7	
PARDAX_Tumor_DNA.bam	0.5.7	
PARDAX_Tumor_RNA.bam	0.5.7	
PARFTG_Normal_DNA.bam	0.5.7	
PARFTG_Tumor_DNA.bam	0.5.7	
PARFTG_Tumor_RNA.bam	0.5.7	
PARGTM_Normal_DNA.bam	0.5.7	
PARGTM_Tumor_DNA.bam	0.5.7	
PARGTM_Tumor_RNA.bam	0.5.7	
PARJXU_Normal_DNA.bam	0.5.7	
PARJXU_Tumor_DNA.bam	0.5.7	
PARJXU_Tumor_RNA.bam	0.5.7	
PARKAF_Normal_DNA.bam	0.5.7	
PARKAF_Tumor_DNA.bam	0.5.7	
PARKAF_Tumor_RNA.bam	0.5.7	
PASEBY_Normal_DNA.bam	0.5.7	
PASEBY_Tumor_DNA.bam	0.5.7	
PASEBY_Tumor_RNA.bam	0.5.7	
PASEFS_Normal_DNA.bam	0.5.7	
PASEFS_Tumor_DNA.bam	0.5.7	
PASEFS_Tumor_RNA.bam	0.5.7	
PASFCV_Normal_DNA.bam	0.5.7	
PASFCV_Tumor_DNA.bam	0.5.7	
PASFCV_Tumor_RNA.bam	0.5.7	
PASKZZ_Normal_DNA.bam	0.5.7	
PASKZZ_Tumor_DNA.bam	0.5.7	
PASKZZ_Tumor_RNA.bam	0.5.7	
PASNZV_Normal_DNA.bam	0.5.7	
PASNZV_Tumor_RNA.bam	0.5.7	
PASRNE_Normal_DNA.bam	0.5.7	
PASRNE_Tumor_DNA.bam	0.5.7	
PASRNE_Tumor_RNA.bam	0.5.7	
PASSLM_Normal_DNA.bam	0.5.7	
PASSLM_Tumor_DNA.bam	0.5.7	
PASSLM_Tumor_RNA.bam	0.5.7	
PASUUH_Normal_DNA.bam	0.5.7	
PASUUH_Tumor_DNA.bam	0.5.7	
PASUUH_Tumor_RNA.bam	0.5.7	
PASYUK_Normal_DNA.bam	0.5.7	
PASYUK_Tumor_DNA.bam	0.5.7	
PASYUK_Tumor_RNA.bam	0.5.7	
PATAWV_Normal_DNA.bam	0.5.7	
PATAWV_Tumor_DNA.bam	0.5.7	
PATAWV_Tumor_RNA.bam	0.5.7	
PATEEM_Normal_DNA.bam	0.5.7	
PATEEM_Tumor_DNA.bam	0.5.7	
PATEEM_Tumor_RNA.bam	0.5.7	
PATJVI_Normal_DNA.bam	0.5.7	
PATJVI_Tumor_DNA.bam	0.5.7	
PATJVI_Tumor_RNA.bam	0.5.7	
PATMPU_Normal_DNA.bam	0.5.7	
PATMPU_Tumor_RNA.bam	0.5.7	
PATMXR_Normal_DNA.bam	0.5.7	
PATPBS_Normal_DNA.bam	0.5.7	
PATUXZ_Normal_DNA.bam	0.5.7	
PATUXZ_Tumor_RNA.bam	0.5.7	
read_1_100.clip_withJunctionsOnGenome_dupsFlagged.bam	0.5.7	
