GS00396-DNA_H02.bam	22a0c94f2de659bf41d2b83cd7b37242
GS00426-DNA_G01.bam	90fd2c543d43d1af37b5fdeac7deb232
GS00822-DNA_D08.bam	5682a34fd6aa22d0633e0cd08d131a20
GS00823-DNA_D07.bam	ff2b651bc62e4c08df0461304aeefb05
GS00823-DNA_F02.bam	4c9158a441f81ce34fcc2858c80538cb
GS00823-DNA_F07.bam	3aaa2ce7af49551e3ec8c28b0b031bf5
GS00824-DNA_H01.bam	8981df398f6d110744e46f41f35dadaf
GS00827-DNA_E03.bam	362a75c70d678bd7dc6d100353b61d52
GS00827-DNA_H07.bam	a376d10fd85f27af4fd66307bdee4fd3
GS00828-DNA_A02.bam	7f4af39694efd859af778b3f534e2be8
GS00828-DNA_B02.bam	842cf1bd824d976b4ff85ef4f95b1148
GS00828-DNA_C04.bam	1b8f63bccef603339d4ed4bfa033d141
GS00828-DNA_D05.bam	f983776b77372d375425999d3731a8a0
GS00830-DNA_G07.bam	87135c9463358bd66a8ff45d5cc35214
GS01673-DNA_B04.bam	98957f826326e210b5939a08bfa296ef
GS01673-DNA_D01.bam	f586523c276fd702919e8bc37cc28172
GS01673-DNA_D10.bam	7aafa855453866d0b937c2afdbefe5ce
GS01673-DNA_D11.bam	ad5a3248b4be774fb343ec0c57fdbeef
GS01673-DNA_E01.bam	a1ee268e03ba4374ae68c935199d304b
GS01673-DNA_E10.bam	5c6de8d5e6f5b9b45678106976644e76
GS01673-DNA_E11.bam	c7cae79d70ef612917106096a21d656f
GS01673-DNA_F01.bam	7c3fcf9a238d7473f4ed258c49a86552
GS01681-DNA_A07.bam	785d4de3ac5d0f739c19d148ff9192a7
GS01681-DNA_H02.bam	08e8b12ab51597eed71562d02920e3bb
GS01861-DNA_C03.bam	e3ac4c2069d6caa9f5525ada31299cbe
GS02330-DNA_A01.bam	06223ec8e758f40c8ce19a8b76ad4bbb
GS02330-DNA_A02.bam	6009f7229533c45cba792241112a0e61
GS02330-DNA_A03.bam	8c0f1b70cfc05cb8c7d86b630dae55d2
GS02330-DNA_A04.bam	ae43a935f3fa9d5214ac5c9e6ddea123
GS02330-DNA_A05.bam	ffda0f9ad6c206cff071a14432af4429
GS02330-DNA_A06.bam	559f7c1de939220c1abc7f8f50003f1e
GS02330-DNA_B01.bam	9d76dc31ec960431914b98867c3f3826
GS02330-DNA_B02.bam	78e9528cc2fefc0843304aa084efb553
GS02330-DNA_B04.bam	bcce16f5af3bf49d7b98063150256226
GS02330-DNA_B05.bam	4ba69eb378c851701b103923f8db4268
GS02330-DNA_B06.bam	4f1ff1e13a444363584dda3272910969
GS02330-DNA_C02.bam	6e1f0cac0b928bf216a9f781fcb62190
GS02330-DNA_C03.bam	fdf2867f1d493d59a3816607dc318fca
GS02330-DNA_C04.bam	26ef4360a26a56301b2b43efc33b4319
GS02330-DNA_C05.bam	ab5b117b3bf6d59d5855e55ab2cf4217
GS02330-DNA_C06.bam	cba630c5b68f9742d0248aecc0ab99cf
GS02330-DNA_D02.bam	e516938a35dbad993a1a1b6b0a1926fe
GS02330-DNA_D03.bam	1eb4bf9c464d4ff156aa1d2bcc2ceae2
GS02330-DNA_D04.bam	b675ae6f29f404b13b5a81ded2d863e2
GS02330-DNA_D05.bam	ab2dd200a7b455f02bee774421dbdccc
GS02330-DNA_D06.bam	842f617603ff43b88cec41c1584a5640
GS02330-DNA_E01.bam	94395acc6b145112d7cec99978794b25
GS02330-DNA_E02.bam	99303aadf715f600175e5fd2ca13eb7d
GS02330-DNA_E04.bam	cc6cc79abc7ac0a473d976300e4f3292
GS02330-DNA_E05.bam	fad6eef8a87b5643d23b1e82edc615b0
GS02330-DNA_E06.bam	7a6e411d675eebba69ab7f12b09fc512
GS02330-DNA_F01.bam	8afeb3e62364f763e52c4f95708fac26
GS02330-DNA_F03.bam	39742a8bdd9eabea1c14d4d5da851efc
GS02330-DNA_F04.bam	e252fc2b148055dc643ff86e55c199f4
GS02330-DNA_F05.bam	fd01c0585b7e4ee0ce7f123da1f8866c
GS02330-DNA_F06.bam	f572fa82c7b344ab279d164a1df50808
GS02330-DNA_G01.bam	20da4a1158aef5a5fb7f5c1067c15a03
GS02330-DNA_G02.bam	12ba6dcb0388618656665bb366acc201
GS02330-DNA_G03.bam	b5e7ca89090af0bf68b2c6a35bb87533
GS02330-DNA_G04.bam	662d730396e0af1d095db71955cfe05a
GS02330-DNA_G05.bam	fb9719e057a433bb4282eeace4b40562
GS02330-DNA_H01.bam	106ba48ce906e21c0167b7115ddda130
GS02330-DNA_H02.bam	e8d7bb1066d7dd6032f3ec97991e87fb
GS02330-DNA_H03.bam	eff6aede026f1e36d94743b2da0a4262
GS02330-DNA_H05.bam	982a1a89397d9e72b5e688f9b6dee4bc
GS02332-DNA_A01.bam	833c4572e2a79e75ddd63061f4baade0
GS02332-DNA_A02.bam	649a40a5598e1439c2098aa11d8e57cc
GS02332-DNA_A03.bam	35164177cfaa3d29b417598e21e7a979
GS02332-DNA_A04.bam	45ca6b74f7f5e6895d17976a30e979e0
GS02332-DNA_A06.bam	8c7328e91dd782c2ea0c2747497888c8
GS02332-DNA_A07.bam	f4ce67c2e07fe4d84f40386a757224d2
GS02332-DNA_A08.bam	7f79d3f3fe1577327c8405e339a73835
GS02332-DNA_A09.bam	58fdbbbd58aea831447665b5099ee73e
GS02332-DNA_B01.bam	fb01e5a688b1db1d12ce545908fe9864
GS02332-DNA_B02.bam	0423f89b66904db863be2523f4fb1fd4
GS02332-DNA_B03.bam	d4e7551cf7bde59172d036b05e5a2ffb
GS02332-DNA_B05.bam	d018e04dd20fb24edc43179fb34a9bfe
GS02332-DNA_B06.bam	87b88a9c6439eb47af437b2daea75d08
GS02332-DNA_B07.bam	d8c6caa65af12e1cd116376d06b1b6c0
GS02332-DNA_B08.bam	681dcde48c44783db6b214b632370479
GS02332-DNA_B09.bam	677dec55176cbf0321f5dd2c2246da0d
GS02332-DNA_B10.bam	6bdc6aa55f9ac16d2180ec8c3f48f688
GS02332-DNA_B11.bam	a498d2274762c131574c99740121d61b
GS02332-DNA_C01.bam	2d2c034ac593730d19a8933241b99380
GS02332-DNA_C02.bam	949482cc2da99fe2b933de9a75f9fee3
GS02332-DNA_C04.bam	8591c435f694577a3aa63324c0c6d22f
GS02332-DNA_C05.bam	8dca3d5e02d9d06a09f8c17fef43056b
GS02332-DNA_C06.bam	07a1abd8ad5ff79a5f36c49033ab0cdb
GS02332-DNA_C07.bam	b259915638546bda79e1302eb0be7289
GS02332-DNA_C08.bam	c5aa030a1dfdf6895ce8f0f339c6f981
GS02332-DNA_C09.bam	7a9a7682707a301bebdaa353eea1ed6f
GS02332-DNA_C10.bam	b7d38c1751d70af261845a4f375a79e3
GS02332-DNA_C11.bam	abdb646be7082e3394d25735fcb2d389
GS02332-DNA_D01.bam	684a2d492162d7df1496a7bdbe662439
GS02332-DNA_D03.bam	e7442c88a02f8d5971494adc448a3969
GS02332-DNA_D04.bam	3dcfef7821f90c825ddaf8f3f9e62cdc
GS02332-DNA_D05.bam	6c742b46776e66e32305d7a82ac8f362
GS02332-DNA_D06.bam	ba2f51ef7733a8273954a0f1e0707cd6
GS02332-DNA_D07.bam	4627d015371438a3583c2913e37db4b9
GS02332-DNA_D08.bam	ea1c1580aada6276f24d3e743142dae0
GS02332-DNA_D09.bam	d0d2d8488d8f043c62e3c29262e62f33
GS02332-DNA_D10.bam	933e59839b0817d280be13805e3f6f49
GS02332-DNA_D11.bam	b73e500b1396fb4739f9e5391ba41858
GS02332-DNA_E01.bam	7852b095f8416fdabaaf151f327f1a3c
GS02332-DNA_E02.bam	cd0aa7f95b4f53e9845e363fe1b4408e
GS02332-DNA_E03.bam	95de38861228f407b981168bf037d9d2
GS02332-DNA_E04.bam	c813f2faa8aeb8e1b9293254cba60290
GS02332-DNA_E05.bam	27ef24b90e92b66aa287660fcd6894a6
GS02332-DNA_E06.bam	218e7296cc23dbb6fe2efe8ebb65d56d
GS02332-DNA_E07.bam	364d4977e48b5010790c4854417f71ad
GS02332-DNA_E08.bam	ce066274c80dd86e092dfefb9ab457dc
GS02332-DNA_E09.bam	8e3aa961b0ad4db4b01f70e905e3efd4
GS02332-DNA_E10.bam	bfb3c00a45ee1b4d62fcfed56cc9d7af
GS02332-DNA_E11.bam	705d178cda415bb2fd7fcfdef2a1536b
GS02332-DNA_F03.bam	55f27ed08c29803ed4d4699eea1b931e
GS02332-DNA_F05.bam	3d3102e00fa6f6645f1e20e5ed38cb88
GS02332-DNA_F06.bam	030eddedb64f986bcdd96c02b91939a9
GS02332-DNA_F07.bam	0cad61a76b7be88f6cb552e3b0a1db85
GS02332-DNA_F09.bam	553a9ca56943ae3a46749a6a4b300a15
GS02332-DNA_F10.bam	8e61568fdb470d01177f9e7ed3314f7e
GS02332-DNA_F11.bam	bb1a68df67c5f09dfc9daa1cdebce512
GS02332-DNA_G02.bam	a0127a5f71f09247fee1945ab0e8a5b4
GS02332-DNA_G03.bam	1856dba4d79a1e7c9df7aa5790769d84
GS02332-DNA_G05.bam	46509fd7b1ae6b5b493be0b1c4d345de
GS02332-DNA_G08.bam	52ee58e1855cc040179d5e79aa3ba471
GS02332-DNA_G09.bam	2b14223574ff05063f0fea798ed11e46
GS02332-DNA_G10.bam	3395dc3d3510c868d528e2276a2797ed
GS02332-DNA_G11.bam	7d61e68f01ef4de5493c8870c671d9fd
GS02332-DNA_H02.bam	f92bbf9ef42d2b3ce99155965bc92a73
GS02332-DNA_H03.bam	7a14bf8871bc674502f7aa74563fd611
GS02332-DNA_H06.bam	9afba09507ea245b124f9a25791ec71f
GS02332-DNA_H08.bam	1efa24288331dc03f431e175c72f6e88
GS02332-DNA_H10.bam	d467ed65d6ddffab8aefe2269fa92c8e
GS02332-DNA_H11.bam	56980aed5d7a7d8554c12283755b89bc
GS02333-DNA_A02.bam	39f0c8ac9396a83beda3854b3f692128
GS02333-DNA_A03.bam	6e249afd185c161dc2542577e6bb4bb9
GS02333-DNA_A04.bam	eabbc54579e4b236df263e4afd61a30a
GS02333-DNA_A05.bam	895271ba4aacb0368edb7b88c0d05226
GS02333-DNA_A06.bam	c9032552adb98823e8a5a9731c1bc12b
GS02333-DNA_A07.bam	37c1da5840ad1091215d7f1c17cd1bc1
GS02333-DNA_A08.bam	e314b109b1fe0aca1c255e6cd5d71e2f
GS02333-DNA_A09.bam	e45a3efa2c883bd405dbcbadae8a1270
GS02333-DNA_A10.bam	04c659e7f46f4ad943faaae5f43106d4
GS02333-DNA_A11.bam	ff9a5271769715d57b14b524843c42ad
GS02333-DNA_B01.bam	8970252c0000e029490b1c0ee02be419
GS02333-DNA_B02.bam	45708777a4c2e914b86c97b55254c378
GS02333-DNA_B03.bam	37939e6d9e8c64a891d49c9048620195
GS02333-DNA_B04.bam	8c6d6e9f419f8e45d68136028f19bd9e
GS02333-DNA_B05.bam	2a1d442e430fac62c0a1505639b7f426
GS02333-DNA_B06.bam	e95dc1301695e8f0cbd90a7b2abd09c4
GS02333-DNA_B07.bam	2158d647e08461b8d21ad804303e9d28
GS02333-DNA_B08.bam	4b431216d80516c0727764534d56fa45
GS02333-DNA_B09.bam	be20d5318f4fadf3795ae4cf3995c3a9
GS02333-DNA_B10.bam	ad307efd890cfa917537e24c06e41795
GS02333-DNA_B11.bam	80dc990229958efab262832bfa228be0
GS02333-DNA_C01.bam	035a1410a0dacd33127932f6782eaba3
GS02333-DNA_C02.bam	ac325ad987e4ccad5987b42df9d8bbc8
GS02333-DNA_C03.bam	709a6d78f4f8a4ff6273008f909cf2b2
GS02333-DNA_C04.bam	fe8cbaef2fb0f2bbb92504f2e3206bae
GS02333-DNA_C05.bam	fa62199ef733f62e1eb21ff01d887247
GS02333-DNA_C06.bam	3f31a02b6bbfbc2faf8aee2a5a0af47f
GS02333-DNA_C07.bam	05448efd76d9aaa2c13f203bd8253f23
GS02333-DNA_C08.bam	31e8d94243d64bb886c4fd0c1ccea174
GS02333-DNA_C09.bam	dc0a9edc4f50009bb0cdb00c2b0d63bf
GS02333-DNA_C11.bam	55bd260db7ad370d55eb97c4437fa594
GS02333-DNA_D01.bam	709d8adf87291c360a7b0974c8d17614
GS02333-DNA_D02.bam	5fa9e58cbb9d147730807fd27222e0ad
GS02333-DNA_D03.bam	cd9064ff20b985e62aeeff9f617b1de6
GS02333-DNA_D04.bam	3e37f01a712a7bba6accc01e2f6f3111
GS02333-DNA_D05.bam	daa61c9200131ec93cc5bd20df025a5b
GS02333-DNA_D06.bam	451d2db921129da9e7b95ca686477d8e
GS02333-DNA_D07.bam	816b89fef623e0adeb8bfbb8e13b1a29
GS02333-DNA_D08.bam	8a2970562dfe79c0c2d3093ccfd81591
GS02333-DNA_D09.bam	322d5bfb096972809b316371276ff47e
GS02333-DNA_D10.bam	60c76202cf84d3b806233785894e56f3
GS02333-DNA_E01.bam	3d21383a9296b26a003eab8bf4b59684
GS02333-DNA_E02.bam	e71363a3f6bf269ebca2c487d4289138
GS02333-DNA_E03.bam	494a069791ab9d0e5092f0923b021587
GS02333-DNA_E04.bam	8daf2e2a367b833919a4a9351df2892e
GS02333-DNA_E05.bam	38f669f998d92eb096604742c707155a
GS02333-DNA_E06.bam	73a7bef5ba02a0b037c4142e576d826e
GS02333-DNA_E07.bam	fa3aa8f04fcf8bd9bdf92d5b54ef93bb
GS02333-DNA_E08.bam	615b6f2d2e4cb3c8bfa5d0cfe8ed9c52
GS02333-DNA_E09.bam	cc972afbfa5260cb0e659965c98f1761
GS02333-DNA_E10.bam	cf96e9678a7e8ea644d87f602448f6dc
GS02333-DNA_E11.bam	8a9a8827f919799069abb5d69e6abf73
GS02333-DNA_F01.bam	8b1ac9ca4ca5b5e038a2099a18e802e5
GS02333-DNA_F02.bam	a773d8a35f7e44206486b748983af197
GS02333-DNA_F03.bam	526ca8e2de48fa31657d37da90d216cb
GS02333-DNA_F04.bam	04d8c2baf7315adb660fcaea4468df1b
GS02333-DNA_F05.bam	7ddd2b6499a0dbb46d351dbc0fe4e750
GS02333-DNA_F06.bam	b5ee2ff4444858c288f4662536378c68
GS02333-DNA_F07.bam	fc6ef4fd59bdef6928397d3b3d0443ad
GS02333-DNA_F08.bam	bb2e0dc3f49f7841373811535322c603
GS02333-DNA_F10.bam	58cbca3a6a13ba6bba714e94bf364700
GS02333-DNA_G01.bam	f67c256d805966682d7ea82a9114c440
GS02333-DNA_G02.bam	a9bc27ae21b0504f642f4acc5fd9f8cd
GS02333-DNA_G03.bam	d2316a211a74a94d1ba648947fde77ff
GS02333-DNA_G04.bam	e320632f937b4ec36b59e9a879a80f87
GS02333-DNA_G05.bam	338bcbf8202e00ef12b527acf0e22069
GS02333-DNA_G06.bam	81a1c05d9eaaebe1568962ab24a016fa
GS02333-DNA_G07.bam	d2adf97289cb9d8a00f08e3bd7f9d392
GS02333-DNA_G08.bam	ba19892f8cca2eb332a6ae6ef94e010c
GS02333-DNA_G09.bam	44f8eae1c11095b0090fea50eabb4ee9
GS02333-DNA_G10.bam	3986ee9aaf9ffb305d7b1f88ff6e7ac9
GS02333-DNA_H01.bam	a66ff0633cb596e77f55c21eea092e97
GS02333-DNA_H02.bam	40d0cb0e4911e8435ef286c195ecff51
GS02333-DNA_H03.bam	ef2b699ccf5b71230966ea3cb1208953
GS02333-DNA_H04.bam	958594ea824d0684211ede3409124ed0
GS02333-DNA_H05.bam	d7fcbec21d4148a5ffbe1b58831a9cd3
GS02333-DNA_H06.bam	353983b4619c286743c15acc3dc2ead7
GS02333-DNA_H07.bam	e79cf424736a7bfc512dae4775b79ce0
GS02333-DNA_H08.bam	db0e2d3c3a2f5f172899490005d9a56f
GS02333-DNA_H09.bam	a70b1b90a8b84aa92f000e0c1b8857fb
GS02333-DNA_H10.bam	4f3d00228140b5bcd2b742b73a54ddea
GS02334-DNA_A03.bam	aae423e8adeea34a5de3010448cefc09
GS02334-DNA_A07.bam	62ca15a49b9caff01888b2fcfdb52e5f
GS02334-DNA_A08.bam	7ec7abb08b38dd7873dc91e55f26f65d
GS02334-DNA_A09.bam	bde87e8e6d4d4743d0759b509fbbb9fb
GS02334-DNA_A10.bam	8833afd75b22bcee4a6f7036c208a0dc
GS02334-DNA_B01.bam	74502aeb671e81877483d616cc34bc1e
GS02334-DNA_B05.bam	39fa6371ed3f7b3d4dcedd43d8f23881
GS02334-DNA_B07.bam	73f24b31b6476f19a7d7f90a33b97f1f
GS02334-DNA_B08.bam	05a9896287550c7cbdb2f75050b62bc3
GS02334-DNA_B09.bam	2a0985359134a2d009d3709409f1bf8d
GS02334-DNA_B10.bam	00be0c0c998f8816df09b311656ac56e
GS02334-DNA_C01.bam	24fc5a8da8e8d5781cb419d778b1c394
GS02334-DNA_C02.bam	3af98b4e772a8fef731e22252dda1372
GS02334-DNA_C03.bam	f1f524d1a8b179d9e12032cb41994e12
GS02334-DNA_C04.bam	78026d38b9d1755fa744c7687c2e8d6a
GS02334-DNA_C05.bam	83ab9434b87c7cf5f8ef0002ffb7be9a
GS02334-DNA_C07.bam	4141dbcca43bab889cc5bd41932a4c7b
GS02334-DNA_C08.bam	cb5a16e2d29b09f7c0882d5dd9d0ce0c
GS02334-DNA_C09.bam	5e983e7da0afaa5913514f172d31179d
GS02334-DNA_C10.bam	a2abafa6df880095affe0906cc9f6297
GS02334-DNA_D03.bam	1f5be3bcba4a00a228c6a73eeaca9c8e
GS02334-DNA_D04.bam	e3a2366392895a9ebe8f89522bb8b09e
GS02334-DNA_D05.bam	869902b6078e897806b6de8165940e83
GS02334-DNA_D06.bam	4cee6e45530f79ab82c887b9a6c509e0
GS02334-DNA_D07.bam	74b3da49ebaf755ad8d833baa1db859f
GS02334-DNA_D08.bam	5892187bebaa6d20acdd7456b0ae88b7
GS02334-DNA_D09.bam	d03692aef7672fe33ac01266e841601d
GS02334-DNA_E03.bam	529566dd6f2305ee278bae5e01fb47e8
GS02334-DNA_E04.bam	a08d98b7560fbf84e337ebbf7f913d10
GS02334-DNA_E05.bam	38fcc61e5b780f3bc8eed77b610021a0
GS02334-DNA_E06.bam	0932d6a57b978eb7596e855f471c6c4f
GS02334-DNA_E07.bam	91f859e9d62c8ee0706f973d4911f476
GS02334-DNA_E08.bam	71b6053bd3c075112d0ef0c4c5c7c539
GS02334-DNA_F03.bam	0810ffcbdaa7d7c1dc7b23f490951846
GS02334-DNA_F04.bam	b2d8d0c043354c3d3264cc3c45151d9b
GS02334-DNA_F07.bam	2f56cc69f836440c41c819abf2d53187
GS02334-DNA_F08.bam	e525183b3d40db35e7077ed49a5a4529
GS02334-DNA_F10.bam	66e1038885c31c29c03d99d3a6158ad3
GS02334-DNA_G03.bam	e0136ca9083fcbda18ab7b55d8d9e716
GS02334-DNA_G04.bam	672a4db89716e7bae01d2a54a64e3426
GS02334-DNA_G05.bam	0dab49b62bc847bb06acf1fc5e7196a7
GS02334-DNA_G07.bam	2410e8e547fc011d75b02a41acab1eb7
GS02334-DNA_G08.bam	40399f963842b41a680d108d856ea22d
GS02334-DNA_G10.bam	41e4a6157d6ad97d5d58597dd9194dd7
GS02334-DNA_H05.bam	211f92d3d9dbca8d59aca60c09e7d4fc
GS02334-DNA_H06.bam	59b45cc9b522cbe83a647c70b9e0751a
GS02334-DNA_H07.bam	6ef5ef63683b0b5000831855f132aee7
GS02334-DNA_H08.bam	aa71f8ecc9ebd38b5c0b6e0c3810a917
GS02334-DNA_H09.bam	f222267d3d64ec222a42a6b4ba043194
GS02335-DNA_B01.bam	d1e44f2d9c677c1155c018030a78e834
