SRA_Accession	dbGaP_Accession	Name
SRP002653	phs000218	TARGET: Parent Study
0	phs000515 	1 TARGET: Acute Myeloid Leukemia (AML), Induction Failure Subproject
SRP012005	phs000470	2 TARGET: Kidney - Rhabdoid Tumor (RT)
SRP012001	phs000466	3 TARGET: Kidney - Clear Cell Sarcoma of the Kidney (CCSK)
SRP012004	phs000469	4 TARGET: PPTP Cell Lines
SRP011999	phs000464	5 TARGET: Acute Lymphoblastic Leukemia (ALL) Phase II
SRP012003	phs000468	6 TARGET: Osteosarcoma (OS)
SRP012000	phs000465	7 TARGET: Acute Myeloid Leukemia (AML)
SRP012002	phs000467	8 TARGET: Neuroblastoma (NBL)
SRP012006	phs000471	9 TARGET: Kidney - Wilms Tumor (WT)
SRP011998	phs000463	10 TARGET: Acute Lymphoblastic Leukemia (ALL)
