runAcc	exprAcc	sampleAcc	runSubmissionAcc	sraStatus	sraInfo	study	center	sampleBarcode	metadataState	metadataDesc	metadataGitId	downloadedState	downloadedDesc	cghubState	cghubDesc	analysisId	allRunAccs	allExprAccs	downloadedDir
				unknown		TARGET (NBL)	BCCAGSC	TARGET-30-PASLGS-01A-01D	ok	live		ok	absent	ok	live	a9d9c669-3140-56da-949b-4ab5f80b2493			
SRR563748	SRX100062	SRS160295	SRA046828	live		TARGET (AML)	BCM	TARGET-20-PARGVC-14A-01D	ok	live		ok	released	ok	live	cc217c7a-470f-5b5f-a157-f64d6945c8e1	SRR351099,SRR563748	SRX100062	master/phs000218/AML/TARGET-20-PARGVC/normal_sample/TARGET-20-PARGVC-14A-01D/SRX100062/SRR563748_processed
SRR564202	SRX185425	SRS301138	SRA058595	live	multiLiveExpr	TARGET (AML)	CompleteGenomics	TARGET-20-PASJGZ-14A-01D	ok	live		ok	chromSplitBam	ok	live	56740c8a-bf47-4d43-8fe4-0f376c8ac9cb	SRR564202,SRR564203,SRR564204,SRR564205,SRR564206,SRR564207,SRR564208,SRR564209	SRX185425	master2/AML/TARGET-20-PASJGZ/normal_sample/TARGET-20-PASJGZ-14A-01D/SRX185425
SRR616391	SRX204262	SRS375186	SRA061507	live		TARGET (NBL)	CompleteGenomics	TARGET-30-PASTCN-01A-01D	ok	live	c0b852dc-f0b9-5bf6-b578-67a684d42583	ok	absent	ok	live	c45bb766-8020-57f4-8f65-73b7d90a6f65	SRR616391,SRR616392,SRR616393,SRR616394,SRR616395,SRR616396,SRR616397	SRX204262	
SRR618209	SRX205056	SRS375980	SRA061740	live		TARGET (NBL)	CompleteGenomics	TARGET-30-PASEGA-10A-01D	ok	live	97ae39f0-f360-5adf-901f-54da0bb72fea	ok	absent	ok	live	bbea14d9-7cb5-5eb9-b2c2-8334345522e9	SRR618209,SRR618210,SRR618211,SRR618212,SRR618213,SRR618214,SRR618215,SRR618216	SRX205056	
SRR631430	SRX209854	SRS375980	SRA062875	live		TARGET (NBL)	BI	TARGET-30-PASEGA-10A-01D	ok	live	b3d9299d-58be-471d-9948-bed97547b73f.error	ok	absent	ok	live	b3d9299d-58be-471d-9948-bed97547b73f	SRR631430,SRR631431,SRR631432,SRR631433,SRR631434,SRR631435,SRR631436,SRR631437,SRR631438,SRR631439,SRR631440,SRR631441,SRR631442,SRR631443,SRR631444,SRR631445,SRR631446	SRX209854,SRX209855,SRX209856,SRX209857,SRX209858	
SRR638633	SRX211946	SRS375186	SRA062875	live		TARGET (NBL)	BI	TARGET-30-PASTCN-01A-01D	ok	live	0d37ee70-2537-47ac-be7d-aee7bb62de25.error	ok	absent	ok	live	0d37ee70-2537-47ac-be7d-aee7bb62de25	SRR638633,SRR638634,SRR638635,SRR638636,SRR638637,SRR638638,SRR638639,SRR638640,SRR638641,SRR638642,SRR638643,SRR638644,SRR638645,SRR638646,SRR638647,SRR638648,SRR638649,SRR638650	SRX211944,SRX211945,SRX211946	
