runAcc	exprAcc	sampleAcc	runSubmissionAcc	sraStatus	sraInfo	study	center	sampleBarcode	metadataState	metadataDesc	metadataGitId	downloadedState	downloadedDesc	cghubState	cghubDesc	analysisId	allRunAccs	allExprAccs	downloadedDir
SRR1008037	SRX363102	SRS489834	SRA105400	live		TARGET (WT)	CompleteGenomics	TARGET-50-PALKCW-01A-01D	ok	OK	ac895201-6b98-5df2-84fd-124e96ec9ce2	ok	chromSplitBam	ok	notLoaded		SRR1008037,SRR1008038,SRR1008039,SRR1008040,SRR1008041,SRR1008042,SRR1008043	SRX363102	master2/WT/TARGET-50-PALKCW/tumor_sample/TARGET-50-PALKCW-01A-01D/SRX363102
SRR445535	SRX129981	SRS118139	SRA050174	live		TARGET (WT)	CompleteGenomics	TARGET-50-PALKRS-01A-01D	ok	OK	e693fd0f-0063-5c62-ac55-16fe2f6a156b	ok	chromSplitBam	ok	notLoaded		SRR445535,SRR445536,SRR445537,SRR445538,SRR445539,SRR445540,SRR445541,SRR445542	SRX129981	master/phs000218/WT/TARGET-50-PALKRS/tumor_sample/TARGET-50-PALKRS-01A-01D/SRX129981/SRR445535_processed
SRR445543	SRX129980	SRS118140	SRA050174	live		TARGET (WT)	CompleteGenomics	TARGET-50-PALKRS-10A-01D	ok	OK	70975932-423b-54f2-aa2e-8c456a20a875	ok	chromSplitBam	ok	notLoaded		SRR445543,SRR445544,SRR445545,SRR445546,SRR445547,SRR445548,SRR445549,SRR445550	SRX129980	master/phs000218/WT/TARGET-50-PALKRS/normal_sample/TARGET-50-PALKRS-10A-01D/SRX129980/SRR445543_processed
SRR577256	SRX189928	SRS160217	SRA050174	live		TARGET (ALL II)	CompleteGenomics		ok	OK	1938e058-acd2-56f2-b01b-6df8163fbd90	ok	absent	ok	notLoaded		SRR577256,SRR577257,SRR577258,SRR577259,SRR577260,SRR577261	SRX189928	
SRR641177	SRX213073	SRS382218	SRA063302	live		TARGET (PPTP)	CompleteGenomics	TARGET-30-PAMYEF-50.1A-01D	ok	OK	d4a63701-bb8e-5525-b8d9-7141a2bf48e0	error	partialChromSplitBam	ok	notLoaded		SRR641177,SRR641178,SRR641179,SRR641180,SRR641181,SRR641182,SRR641183,SRR641184	SRX213073	master/phs000218/PPTP/TARGET-30-PAMYEF/tumor_sample/TARGET-30-PAMYEF-50.1A-01D/SRX213073
